%YAML 1.1
%TAG !u! tag:unity3d.com,2011:
--- !u!21 &2100000
Material:
  serializedVersion: 6
  m_ObjectHideFlags: 0
  m_CorrespondingSourceObject: {fileID: 0}
  m_PrefabInstance: {fileID: 0}
  m_PrefabAsset: {fileID: 0}
  m_Name: water
  m_Shader: {fileID: 46, guid: 0000000000000000f000000000000000, type: 0}
  m_ShaderKeywords: _ALPHAPREMULTIPLY_ON _NORMALMAP
  m_LightmapFlags: 4
  m_EnableInstancingVariants: 0
  m_DoubleSidedGI: 0
  m_CustomRenderQueue: 3000
  stringTagMap:
    RenderType: Transparent
  disabledShaderPasses: []
  m_SavedProperties:
    serializedVersion: 3
    m_TexEnvs:
    - _BumpMap:
        m_Texture: {fileID: 2800000, guid: 2dd3788f8589b40bf82a92d76ffc5091, type: 3}
        m_Scale: {x: 0.2, y: 0.2}
        m_Offset: {x: 0, y: 0}
    - _Cube:
        m_Texture: {fileID: 8900000, guid: 489e72455e74b3048ba8ad92fd13df7f, type: 2}
        m_Scale: {x: 1, y: 1}
        m_Offset: {x: 0, y: 0}
    - _CubeMap:
        m_Texture: {fileID: 8900000, guid: 489e72455e74b3048ba8ad92fd13df7f, type: 2}
        m_Scale: {x: 1, y: 1}
        m_Offset: {x: 0, y: 0}
    - _DetailAlbedoMap:
        m_Texture: {fileID: 0}
        m_Scale: {x: 1, y: 1}
        m_Offset: {x: 0, y: 0}
    - _DetailMask:
        m_Texture: {fileID: 0}
        m_Scale: {x: 1, y: 1}
        m_Offset: {x: 0, y: 0}
    - _DetailNormalMap:
        m_Texture: {fileID: 0}
        m_Scale: {x: 1, y: 1}
        m_Offset: {x: 0, y: 0}
    - _EmissionMap:
        m_Texture: {fileID: 0}
        m_Scale: {x: 1, y: 1}
        m_Offset: {x: 0, y: 0}
    - _FlowMap:
        m_Texture: {fileID: 0}
        m_Scale: {x: 1, y: 1}
        m_Offset: {x: 0, y: 0}
    - _FoamTex:
        m_Texture: {fileID: 2800000, guid: 36dd0b22da8874ed38075789055ca664, type: 3}
        m_Scale: {x: 10, y: 10}
        m_Offset: {x: 0, y: 0}
    - _Fresnel:
        m_Texture: {fileID: 2800000, guid: 5b5c5575fd4c74abd9f7b30862fb76a3, type: 3}
        m_Scale: {x: 1, y: 1}
        m_Offset: {x: 0, y: 0}
    - _MainTex:
        m_Texture: {fileID: 2800000, guid: f52ccfd30a5871d4594c7de4129ec6bc, type: 3}
        m_Scale: {x: 0.4, y: 0.4}
        m_Offset: {x: 0, y: 0}
    - _MetallicGlossMap:
        m_Texture: {fileID: 0}
        m_Scale: {x: 1, y: 1}
        m_Offset: {x: 0, y: 0}
    - _NoiseMap:
        m_Texture: {fileID: 0}
        m_Scale: {x: 1, y: 1}
        m_Offset: {x: 0, y: 0}
    - _OcclusionMap:
        m_Texture: {fileID: 0}
        m_Scale: {x: 1, y: 1}
        m_Offset: {x: 0, y: 0}
    - _ParallaxMap:
        m_Texture: {fileID: 0}
        m_Scale: {x: 1, y: 1}
        m_Offset: {x: 0, y: 0}
    - _ReflectMap:
        m_Texture: {fileID: 2800000, guid: 1d2d6c9a3d9a0be4c91b0fbaf397952b, type: 3}
        m_Scale: {x: 1, y: 1}
        m_Offset: {x: 0, y: 0}
    - _ReflectionTex:
        m_Texture: {fileID: 8900000, guid: 489e72455e74b3048ba8ad92fd13df7f, type: 2}
        m_Scale: {x: 0.1, y: 0.1}
        m_Offset: {x: 0, y: 0}
    - _ReflectiveColor:
        m_Texture: {fileID: 2800000, guid: 17680dc3bf8f74b498b01cf1481e2593, type: 3}
        m_Scale: {x: 1, y: 1}
        m_Offset: {x: 0, y: 0}
    - _ReflectiveColorCube:
        m_Texture: {fileID: 8900000, guid: 9cda328e4b6954d70841a8a66f42ec08, type: 3}
        m_Scale: {x: 1, y: 1}
        m_Offset: {x: 0, y: 0}
    - _RefractMap:
        m_Texture: {fileID: 0}
        m_Scale: {x: 1, y: 1}
        m_Offset: {x: 0, y: 0}
    - _RefractionTex:
        m_Texture: {fileID: 0}
        m_Scale: {x: 1, y: 1}
        m_Offset: {x: 0, y: 0}
    - _WaveMap0:
        m_Texture: {fileID: 0}
        m_Scale: {x: 1, y: 1}
        m_Offset: {x: 0, y: 0}
    - _WaveMap1:
        m_Texture: {fileID: 0}
        m_Scale: {x: 1, y: 1}
        m_Offset: {x: 0, y: 0}
    m_Floats:
    - _BumpAmt: 33.590126
    - _BumpReflStr: 0.77324915
    - _BumpReflectionStr: 0.5838117
    - _BumpScale: 1
    - _Cutoff: 0.5
    - _DetailNormalMapScale: 1
    - _Displacement: 0.059701473
    - _DstBlend: 10
    - _EmissionFactor: 0.37370837
    - _FlowMapOffset0: 7.2500095
    - _FlowMapOffset1: 7.2500095
    - _FresnelPower: 1.6014925
    - _GlossMapScale: 1
    - _Glossiness: 0.5
    - _GlossyReflections: 1
    - _Metallic: 0
    - _Mode: 3
    - _OcclusionStrength: 1
    - _Opacity: 5
    - _Parallax: 0.02
    - _ReflDistort: 0.9880769
    - _ReflIntensity: 0.9701493
    - _ReflToRefrExponent: 0.54615366
    - _RefrDistort: 0.6019231
    - _RefrIntensity: 42.692307
    - _Refraction: 22.153847
    - _RippleSpeed: 2.8071184
    - _ScrollSpeed: 0.009615402
    - _Scrolling: 0.5
    - _Shininess: 0.7889694
    - _ShoreBlending: 0.9701493
    - _SmoothnessTextureChannel: 0
    - _SpecularHighlights: 1
    - _SrcBlend: 1
    - _SunShine: 100
    - _SunSpecular: 1.5
    - _UVSec: 0
    - _WaveScale: 0.0575
    - _WaveSpeed: 2.596154
    - _WaveStrength: 48.07692
    - _ZWrite: 0
    m_Colors:
    - WaveSpeed: {r: 19, g: 9, b: -16, a: -7}
    - _Color: {r: 0.05882353, g: 0.11764706, b: 0.15686275, a: 1}
    - _EmissionColor: {r: 0, g: 0, b: 0, a: 1}
    - _EyePos: {r: 469.1649, g: 60.238647, b: 140.74461, a: 0}
    - _HorizonColor: {r: 0.172, g: 0.463, b: 0.435, a: 1}
    - _MainColor: {r: 0.23529412, g: 0.21568628, b: 0.1764706, a: 0.9019608}
    - _ReflColor: {r: 0.39215687, g: 0.43137255, b: 0.39215687, a: 0.3529412}
    - _ReflectColor: {r: 1, g: 1, b: 1, a: 0.627451}
    - _RefrColor: {r: 0.34, g: 0.85, b: 0.92, a: 1}
    - _ScrollDirection: {r: 1, g: 1, b: 1, a: 1}
    - _Scrolling: {r: -1, g: 0.1, b: 0, a: 0}
    - _SpecColor: {r: 0.6492537, g: 0.6492537, b: 0.6492537, a: 1}
    - _SunColor: {r: 1, g: 0.8, b: 0.4, a: 1}
    - _SunDirection: {r: 0.36919588, g: 0.050064553, b: -0.9280022, a: 0}
    - _TintColor: {r: 1, g: 1, b: 1, a: 0.25882354}
    - _WaterColor: {r: 469.1649, g: 60.238647, b: 140.74461, a: 0}
    - _WaveDirection: {r: -0.27, g: 1, b: 0, a: 0}
    - _WaveScale: {r: 1, g: 0, b: 2, a: 2}
    - _Waves: {r: 0, g: 0, b: 0, a: 0}
--- !u!1002 &2100001
EditorExtensionImpl:
  serializedVersion: 6
